{"page":1,"pages":3,"per_page":50,"total":126,"lastupdated":"2025-12-03","source":{"id":"6","name":"International Debt Statistics","data":[{"variable":[{"concept":"Country","id":"PAK","value":"Pakistan"},{"concept":"Time","id":"YR1970","value":"1970"},{"concept":"Series","id":"DT.DOD.BLAT.CD","value":"PPG, bilateral (DOD, current US$)"},{"concept":"Counterpart-Area","id":"730","value":"China"}],"value":49132800},{"variable":[{"concept":"Country","id":"PAK","value":"Pakistan"},{"concept":"Time","id":"YR1971","value":"1971"},{"concept":"Series","id":"DT.DOD.BLAT.CD","value":"PPG, bilateral (DOD, current US$)"},{"concept":"Counterpart-Area","id":"730","value":"China"}],"value":5662567.4},{"variable":[{"concept":"Country","id":"PAK","value":"Pakistan"},{"concept":"Time","id":"YR1972","value":"1972"},{"concept":"Series","id":"DT.DOD.BLAT.CD","value":"PPG, bilateral (DOD, current US$)"},{"concept":"Counterpart-Area","id":"730","value":"China"}],"value":17234550.9},{"variable":[{"concept":"Country","id":"PAK","value":"Pakistan"},{"concept":"Time","id":"YR1973","value":"1973"},{"concept":"Series","id":"DT.DOD.BLAT.CD","value":"PPG, bilateral (DOD, current US$)"},{"concept":"Counterpart-Area","id":"730","value":"China"}],"value":48222405},{"variable":[{"concept":"Country","id":"PAK","value":"Pakistan"},{"concept":"Time","id":"YR1974","value":"1974"},{"concept":"Series","id":"DT.DOD.BLAT.CD","value":"PPG, bilateral (DOD, current US$)"},{"concept":"Counterpart-Area","id":"730","value":"China"}],"value":67886457.3},{"variable":[{"concept":"Country","id":"PAK","value":"Pakistan"},{"concept":"Time","id":"YR1975","value":"1975"},{"concept":"Series","id":"DT.DOD.BLAT.CD","value":"PPG, bilateral (DOD, current US$)"},{"concept":"Counterpart-Area","id":"730","value":"China"}],"value":72163540.2},{"variable":[{"concept":"Country","id":"PAK","value":"Pakistan"},{"concept":"Time","id":"YR1976","value":"1976"},{"concept":"Series","id":"DT.DOD.BLAT.CD","value":"PPG, bilateral (DOD, current US$)"},{"concept":"Counterpart-Area","id":"730","value":"China"}],"value":93035283},{"variable":[{"concept":"Country","id":"PAK","value":"Pakistan"},{"concept":"Time","id":"YR1977","value":"1977"},{"concept":"Series","id":"DT.DOD.BLAT.CD","value":"PPG, bilateral (DOD, current US$)"},{"concept":"Counterpart-Area","id":"730","value":"China"}],"value":102195395.5},{"variable":[{"concept":"Country","id":"PAK","value":"Pakistan"},{"concept":"Time","id":"YR1978","value":"1978"},{"concept":"Series","id":"DT.DOD.BLAT.CD","value":"PPG, bilateral (DOD, current US$)"},{"concept":"Counterpart-Area","id":"730","value":"China"}],"value":127130887.7},{"variable":[{"concept":"Country","id":"PAK","value":"Pakistan"},{"concept":"Time","id":"YR1979","value":"1979"},{"concept":"Series","id":"DT.DOD.BLAT.CD","value":"PPG, bilateral (DOD, current US$)"},{"concept":"Counterpart-Area","id":"730","value":"China"}],"value":137463285.4},{"variable":[{"concept":"Country","id":"PAK","value":"Pakistan"},{"concept":"Time","id":"YR1980","value":"1980"},{"concept":"Series","id":"DT.DOD.BLAT.CD","value":"PPG, bilateral (DOD, current US$)"},{"concept":"Counterpart-Area","id":"730","value":"China"}],"value":149430945.3},{"variable":[{"concept":"Country","id":"PAK","value":"Pakistan"},{"concept":"Time","id":"YR1981","value":"1981"},{"concept":"Series","id":"DT.DOD.BLAT.CD","value":"PPG, bilateral (DOD, current US$)"},{"concept":"Counterpart-Area","id":"730","value":"China"}],"value":142538092.9},{"variable":[{"concept":"Country","id":"PAK","value":"Pakistan"},{"concept":"Time","id":"YR1982","value":"1982"},{"concept":"Series","id":"DT.DOD.BLAT.CD","value":"PPG, bilateral (DOD, current US$)"},{"concept":"Counterpart-Area","id":"730","value":"China"}],"value":183526646.8},{"variable":[{"concept":"Country","id":"PAK","value":"Pakistan"},{"concept":"Time","id":"YR1983","value":"1983"},{"concept":"Series","id":"DT.DOD.BLAT.CD","value":"PPG, bilateral (DOD, current US$)"},{"concept":"Counterpart-Area","id":"730","value":"China"}],"value":180689717.9},{"variable":[{"concept":"Country","id":"PAK","value":"Pakistan"},{"concept":"Time","id":"YR1984","value":"1984"},{"concept":"Series","id":"DT.DOD.BLAT.CD","value":"PPG, bilateral (DOD, current US$)"},{"concept":"Counterpart-Area","id":"730","value":"China"}],"value":143266648.8},{"variable":[{"concept":"Country","id":"PAK","value":"Pakistan"},{"concept":"Time","id":"YR1985","value":"1985"},{"concept":"Series","id":"DT.DOD.BLAT.CD","value":"PPG, bilateral (DOD, current US$)"},{"concept":"Counterpart-Area","id":"730","value":"China"}],"value":151726191.1},{"variable":[{"concept":"Country","id":"PAK","value":"Pakistan"},{"concept":"Time","id":"YR1986","value":"1986"},{"concept":"Series","id":"DT.DOD.BLAT.CD","value":"PPG, bilateral (DOD, current US$)"},{"concept":"Counterpart-Area","id":"730","value":"China"}],"value":148616183.2},{"variable":[{"concept":"Country","id":"PAK","value":"Pakistan"},{"concept":"Time","id":"YR1987","value":"1987"},{"concept":"Series","id":"DT.DOD.BLAT.CD","value":"PPG, bilateral (DOD, current US$)"},{"concept":"Counterpart-Area","id":"730","value":"China"}],"value":144943981.1},{"variable":[{"concept":"Country","id":"PAK","value":"Pakistan"},{"concept":"Time","id":"YR1988","value":"1988"},{"concept":"Series","id":"DT.DOD.BLAT.CD","value":"PPG, bilateral (DOD, current US$)"},{"concept":"Counterpart-Area","id":"730","value":"China"}],"value":141221659.6},{"variable":[{"concept":"Country","id":"PAK","value":"Pakistan"},{"concept":"Time","id":"YR1989","value":"1989"},{"concept":"Series","id":"DT.DOD.BLAT.CD","value":"PPG, bilateral (DOD, current US$)"},{"concept":"Counterpart-Area","id":"730","value":"China"}],"value":179186617.6},{"variable":[{"concept":"Country","id":"PAK","value":"Pakistan"},{"concept":"Time","id":"YR1990","value":"1990"},{"concept":"Series","id":"DT.DOD.BLAT.CD","value":"PPG, bilateral (DOD, current US$)"},{"concept":"Counterpart-Area","id":"730","value":"China"}],"value":228017067.9},{"variable":[{"concept":"Country","id":"PAK","value":"Pakistan"},{"concept":"Time","id":"YR1991","value":"1991"},{"concept":"Series","id":"DT.DOD.BLAT.CD","value":"PPG, bilateral (DOD, current US$)"},{"concept":"Counterpart-Area","id":"730","value":"China"}],"value":240547711.4},{"variable":[{"concept":"Country","id":"PAK","value":"Pakistan"},{"concept":"Time","id":"YR1992","value":"1992"},{"concept":"Series","id":"DT.DOD.BLAT.CD","value":"PPG, bilateral (DOD, current US$)"},{"concept":"Counterpart-Area","id":"730","value":"China"}],"value":237815723.9},{"variable":[{"concept":"Country","id":"PAK","value":"Pakistan"},{"concept":"Time","id":"YR1993","value":"1993"},{"concept":"Series","id":"DT.DOD.BLAT.CD","value":"PPG, bilateral (DOD, current US$)"},{"concept":"Counterpart-Area","id":"730","value":"China"}],"value":299517691.3},{"variable":[{"concept":"Country","id":"PAK","value":"Pakistan"},{"concept":"Time","id":"YR1994","value":"1994"},{"concept":"Series","id":"DT.DOD.BLAT.CD","value":"PPG, bilateral (DOD, current US$)"},{"concept":"Counterpart-Area","id":"730","value":"China"}],"value":352285020.8},{"variable":[{"concept":"Country","id":"PAK","value":"Pakistan"},{"concept":"Time","id":"YR1995","value":"1995"},{"concept":"Series","id":"DT.DOD.BLAT.CD","value":"PPG, bilateral (DOD, current US$)"},{"concept":"Counterpart-Area","id":"730","value":"China"}],"value":332463444.9},{"variable":[{"concept":"Country","id":"PAK","value":"Pakistan"},{"concept":"Time","id":"YR1996","value":"1996"},{"concept":"Series","id":"DT.DOD.BLAT.CD","value":"PPG, bilateral (DOD, current US$)"},{"concept":"Counterpart-Area","id":"730","value":"China"}],"value":365282453.5},{"variable":[{"concept":"Country","id":"PAK","value":"Pakistan"},{"concept":"Time","id":"YR1997","value":"1997"},{"concept":"Series","id":"DT.DOD.BLAT.CD","value":"PPG, bilateral (DOD, current US$)"},{"concept":"Counterpart-Area","id":"730","value":"China"}],"value":342073745.4},{"variable":[{"concept":"Country","id":"PAK","value":"Pakistan"},{"concept":"Time","id":"YR1998","value":"1998"},{"concept":"Series","id":"DT.DOD.BLAT.CD","value":"PPG, bilateral (DOD, current US$)"},{"concept":"Counterpart-Area","id":"730","value":"China"}],"value":327491543.5},{"variable":[{"concept":"Country","id":"PAK","value":"Pakistan"},{"concept":"Time","id":"YR1999","value":"1999"},{"concept":"Series","id":"DT.DOD.BLAT.CD","value":"PPG, bilateral (DOD, current US$)"},{"concept":"Counterpart-Area","id":"730","value":"China"}],"value":353549527.1},{"variable":[{"concept":"Country","id":"PAK","value":"Pakistan"},{"concept":"Time","id":"YR2000","value":"2000"},{"concept":"Series","id":"DT.DOD.BLAT.CD","value":"PPG, bilateral (DOD, current US$)"},{"concept":"Counterpart-Area","id":"730","value":"China"}],"value":417665249.1},{"variable":[{"concept":"Country","id":"PAK","value":"Pakistan"},{"concept":"Time","id":"YR2001","value":"2001"},{"concept":"Series","id":"DT.DOD.BLAT.CD","value":"PPG, bilateral (DOD, current US$)"},{"concept":"Counterpart-Area","id":"730","value":"China"}],"value":86090638.9},{"variable":[{"concept":"Country","id":"PAK","value":"Pakistan"},{"concept":"Time","id":"YR2002","value":"2002"},{"concept":"Series","id":"DT.DOD.BLAT.CD","value":"PPG, bilateral (DOD, current US$)"},{"concept":"Counterpart-Area","id":"730","value":"China"}],"value":117164805},{"variable":[{"concept":"Country","id":"PAK","value":"Pakistan"},{"concept":"Time","id":"YR2003","value":"2003"},{"concept":"Series","id":"DT.DOD.BLAT.CD","value":"PPG, bilateral (DOD, current US$)"},{"concept":"Counterpart-Area","id":"730","value":"China"}],"value":250017604.9},{"variable":[{"concept":"Country","id":"PAK","value":"Pakistan"},{"concept":"Time","id":"YR2004","value":"2004"},{"concept":"Series","id":"DT.DOD.BLAT.CD","value":"PPG, bilateral (DOD, current US$)"},{"concept":"Counterpart-Area","id":"730","value":"China"}],"value":410498815.7},{"variable":[{"concept":"Country","id":"PAK","value":"Pakistan"},{"concept":"Time","id":"YR2005","value":"2005"},{"concept":"Series","id":"DT.DOD.BLAT.CD","value":"PPG, bilateral (DOD, current US$)"},{"concept":"Counterpart-Area","id":"730","value":"China"}],"value":482783601.2},{"variable":[{"concept":"Country","id":"PAK","value":"Pakistan"},{"concept":"Time","id":"YR2006","value":"2006"},{"concept":"Series","id":"DT.DOD.BLAT.CD","value":"PPG, bilateral (DOD, current US$)"},{"concept":"Counterpart-Area","id":"730","value":"China"}],"value":826462848.9},{"variable":[{"concept":"Country","id":"PAK","value":"Pakistan"},{"concept":"Time","id":"YR2007","value":"2007"},{"concept":"Series","id":"DT.DOD.BLAT.CD","value":"PPG, bilateral (DOD, current US$)"},{"concept":"Counterpart-Area","id":"730","value":"China"}],"value":936205895.2},{"variable":[{"concept":"Country","id":"PAK","value":"Pakistan"},{"concept":"Time","id":"YR2008","value":"2008"},{"concept":"Series","id":"DT.DOD.BLAT.CD","value":"PPG, bilateral (DOD, current US$)"},{"concept":"Counterpart-Area","id":"730","value":"China"}],"value":955735533.5},{"variable":[{"concept":"Country","id":"PAK","value":"Pakistan"},{"concept":"Time","id":"YR2009","value":"2009"},{"concept":"Series","id":"DT.DOD.BLAT.CD","value":"PPG, bilateral (DOD, current US$)"},{"concept":"Counterpart-Area","id":"730","value":"China"}],"value":1827189897},{"variable":[{"concept":"Country","id":"PAK","value":"Pakistan"},{"concept":"Time","id":"YR2010","value":"2010"},{"concept":"Series","id":"DT.DOD.BLAT.CD","value":"PPG, bilateral (DOD, current US$)"},{"concept":"Counterpart-Area","id":"730","value":"China"}],"value":1995260815.9},{"variable":[{"concept":"Country","id":"PAK","value":"Pakistan"},{"concept":"Time","id":"YR2011","value":"2011"},{"concept":"Series","id":"DT.DOD.BLAT.CD","value":"PPG, bilateral (DOD, current US$)"},{"concept":"Counterpart-Area","id":"730","value":"China"}],"value":2430594390.2},{"variable":[{"concept":"Country","id":"PAK","value":"Pakistan"},{"concept":"Time","id":"YR2012","value":"2012"},{"concept":"Series","id":"DT.DOD.BLAT.CD","value":"PPG, bilateral (DOD, current US$)"},{"concept":"Counterpart-Area","id":"730","value":"China"}],"value":3113994324.6},{"variable":[{"concept":"Country","id":"PAK","value":"Pakistan"},{"concept":"Time","id":"YR2013","value":"2013"},{"concept":"Series","id":"DT.DOD.BLAT.CD","value":"PPG, bilateral (DOD, current US$)"},{"concept":"Counterpart-Area","id":"730","value":"China"}],"value":4027851596.9},{"variable":[{"concept":"Country","id":"PAK","value":"Pakistan"},{"concept":"Time","id":"YR2014","value":"2014"},{"concept":"Series","id":"DT.DOD.BLAT.CD","value":"PPG, bilateral (DOD, current US$)"},{"concept":"Counterpart-Area","id":"730","value":"China"}],"value":4933311924.6},{"variable":[{"concept":"Country","id":"PAK","value":"Pakistan"},{"concept":"Time","id":"YR2015","value":"2015"},{"concept":"Series","id":"DT.DOD.BLAT.CD","value":"PPG, bilateral (DOD, current US$)"},{"concept":"Counterpart-Area","id":"730","value":"China"}],"value":5785012482.9},{"variable":[{"concept":"Country","id":"PAK","value":"Pakistan"},{"concept":"Time","id":"YR2016","value":"2016"},{"concept":"Series","id":"DT.DOD.BLAT.CD","value":"PPG, bilateral (DOD, current US$)"},{"concept":"Counterpart-Area","id":"730","value":"China"}],"value":7479295811.5},{"variable":[{"concept":"Country","id":"PAK","value":"Pakistan"},{"concept":"Time","id":"YR2017","value":"2017"},{"concept":"Series","id":"DT.DOD.BLAT.CD","value":"PPG, bilateral (DOD, current US$)"},{"concept":"Counterpart-Area","id":"730","value":"China"}],"value":10118822134.2},{"variable":[{"concept":"Country","id":"PAK","value":"Pakistan"},{"concept":"Time","id":"YR2018","value":"2018"},{"concept":"Series","id":"DT.DOD.BLAT.CD","value":"PPG, bilateral (DOD, current US$)"},{"concept":"Counterpart-Area","id":"730","value":"China"}],"value":16802518336.6},{"variable":[{"concept":"Country","id":"PAK","value":"Pakistan"},{"concept":"Time","id":"YR2019","value":"2019"},{"concept":"Series","id":"DT.DOD.BLAT.CD","value":"PPG, bilateral (DOD, current US$)"},{"concept":"Counterpart-Area","id":"730","value":"China"}],"value":20322532271.3}]}}
